\relax 
\providecommand\hyper@newdestlabel[2]{}
\bibstyle{biblatex}
\bibdata{main-blx,bakalarka}
\citation{biblatex-control}
\abx@aux@sortscheme{nty}
\abx@aux@refcontext{nty/global/}
\abx@aux@category{nobibliography}{Insimu}
\abx@aux@category{nobibliography}{Enty}
\abx@aux@category{nobibliography}{Juvo}
\abx@aux@category{nobibliography}{ishoo}
\abx@aux@category{nobibliography}{teraz:blockova}
\catcode `^\active 
\catcode `"\active 
\catcode `'\active 
\catcode `-\active 
\providecommand\HyperFirstAtBeginDocument{\AtBeginDocument}
\HyperFirstAtBeginDocument{\ifx\hyper@anchor\@undefined
\global\let\oldcontentsline\contentsline
\gdef\contentsline#1#2#3#4{\oldcontentsline{#1}{#2}{#3}}
\global\let\oldnewlabel\newlabel
\gdef\newlabel#1#2{\newlabelxx{#1}#2}
\gdef\newlabelxx#1#2#3#4#5#6{\oldnewlabel{#1}{{#2}{#3}}}
\AtEndDocument{\ifx\hyper@anchor\@undefined
\let\contentsline\oldcontentsline
\let\newlabel\oldnewlabel
\fi}
\fi}
\global\let\hyper@last\relax 
\gdef\HyperFirstAtBeginDocument#1{#1}
\providecommand\HyField@AuxAddToFields[1]{}
\providecommand\HyField@AuxAddToCoFields[2]{}
\@writefile{toc}{\boolfalse {citerequest}\boolfalse {citetracker}\boolfalse {pagetracker}\boolfalse {backtracker}\relax }
\@writefile{lof}{\boolfalse {citerequest}\boolfalse {citetracker}\boolfalse {pagetracker}\boolfalse {backtracker}\relax }
\@writefile{lot}{\boolfalse {citerequest}\boolfalse {citetracker}\boolfalse {pagetracker}\boolfalse {backtracker}\relax }
\select@language{slovak}
\@writefile{toc}{\defcounter {refsection}{0}\relax }\@writefile{toc}{\select@language{slovak}}
\@writefile{lof}{\defcounter {refsection}{0}\relax }\@writefile{lof}{\select@language{slovak}}
\@writefile{lot}{\defcounter {refsection}{0}\relax }\@writefile{lot}{\select@language{slovak}}
\citation{Bawa:Shopping}
\abx@aux@cite{Bawa:Shopping}
\abx@aux@segm{0}{0}{Bawa:Shopping}
\@writefile{toc}{\defcounter {refsection}{0}\relax }\@writefile{toc}{\contentsline {chapter}{\numberline {1}\IeC {\'U}vod}{1}{chapter.1}}
\@writefile{lof}{\defcounter {refsection}{0}\relax }\@writefile{lof}{\addvspace {10\p@ }}
\@writefile{lot}{\defcounter {refsection}{0}\relax }\@writefile{lot}{\addvspace {10\p@ }}
\citation{Klozar:ORL}
\abx@aux@cite{Klozar:ORL}
\abx@aux@segm{0}{0}{Klozar:ORL}
\@writefile{toc}{\defcounter {refsection}{0}\relax }\@writefile{toc}{\contentsline {chapter}{\numberline {2}V\IeC {\'y}ber t\IeC {\'e}my projektu}{3}{chapter.2}}
\@writefile{lof}{\defcounter {refsection}{0}\relax }\@writefile{lof}{\addvspace {10\p@ }}
\@writefile{lot}{\defcounter {refsection}{0}\relax }\@writefile{lot}{\addvspace {10\p@ }}
\@writefile{toc}{\defcounter {refsection}{0}\relax }\@writefile{toc}{\contentsline {section}{\numberline {2.1}Anal\IeC {\'y}za predch\IeC {\'a}dzaj\IeC {\'u}cich projektov}{3}{section.2.1}}
\@writefile{toc}{\defcounter {refsection}{0}\relax }\@writefile{toc}{\contentsline {section}{\numberline {2.2}Z\IeC {\'a}ver anal\IeC {\'y}zy predch\IeC {\'a}dzaj\IeC {\'u}cich projektov}{5}{section.2.2}}
\@writefile{toc}{\defcounter {refsection}{0}\relax }\@writefile{toc}{\contentsline {section}{\numberline {2.3}Anal\IeC {\'y}za kandid\IeC {\'a}tskych n\IeC {\'a}padov na t\IeC {\'e}mu pr\IeC {\'a}ce}{5}{section.2.3}}
\@writefile{toc}{\defcounter {refsection}{0}\relax }\@writefile{toc}{\contentsline {section}{\numberline {2.4}T\IeC {\'e}ma projektu}{6}{section.2.4}}
\citation{teraz}
\abx@aux@cite{teraz}
\abx@aux@segm{0}{0}{teraz}
\@writefile{toc}{\defcounter {refsection}{0}\relax }\@writefile{toc}{\contentsline {chapter}{\numberline {3}Platforma KillBills}{9}{chapter.3}}
\@writefile{lof}{\defcounter {refsection}{0}\relax }\@writefile{lof}{\addvspace {10\p@ }}
\@writefile{lot}{\defcounter {refsection}{0}\relax }\@writefile{lot}{\addvspace {10\p@ }}
\@writefile{toc}{\defcounter {refsection}{0}\relax }\@writefile{toc}{\contentsline {section}{\numberline {3.1}Princ\IeC {\'\i }p sprac\IeC {\'u}vania nasn\IeC {\'\i }man\IeC {\'e}ho dokladu}{9}{section.3.1}}
\citation{pipelines}
\abx@aux@cite{pipelines}
\abx@aux@segm{0}{0}{pipelines}
\@writefile{lof}{\defcounter {refsection}{0}\relax }\@writefile{lof}{\contentsline {figure}{\numberline {3.1}{\ignorespaces Proces spracovania blokov\IeC {\'e}ho dokladu v platforme KillBills}}{10}{figure.3.1}}
\newlabel{fig: SpracovaniePipeline}{{3.1}{10}{Proces spracovania blokového dokladu v platforme KillBills}{figure.3.1}{}}
\@writefile{toc}{\defcounter {refsection}{0}\relax }\@writefile{toc}{\contentsline {section}{\numberline {3.2}Mo\IeC {\v z}n\IeC {\'e} pr\IeC {\'\i }pady pou\IeC {\v z}itia platformy}{11}{section.3.2}}
\@writefile{toc}{\defcounter {refsection}{0}\relax }\@writefile{toc}{\contentsline {chapter}{\numberline {4}Aplik\IeC {\'a}cia na sledovanie v\IeC {\'y}davkov}{13}{chapter.4}}
\@writefile{lof}{\defcounter {refsection}{0}\relax }\@writefile{lof}{\addvspace {10\p@ }}
\@writefile{lot}{\defcounter {refsection}{0}\relax }\@writefile{lot}{\addvspace {10\p@ }}
\@writefile{toc}{\defcounter {refsection}{0}\relax }\@writefile{toc}{\contentsline {section}{\numberline {4.1}Po\IeC {\v z}iadavky na webov\IeC {\'u} aplik\IeC {\'a}ciu}{13}{section.4.1}}
\@writefile{toc}{\defcounter {refsection}{0}\relax }\@writefile{toc}{\contentsline {section}{\numberline {4.2}N\IeC {\'a}vrh}{14}{section.4.2}}
\@writefile{toc}{\defcounter {refsection}{0}\relax }\@writefile{toc}{\contentsline {subsection}{\numberline {4.2.1}D\IeC {\'a}tov\IeC {\'y} model}{14}{subsection.4.2.1}}
\@writefile{lof}{\defcounter {refsection}{0}\relax }\@writefile{lof}{\contentsline {figure}{\numberline {4.1}{\ignorespaces Diagram logick\IeC {\'e}ho d\IeC {\'a}tov\IeC {\'e}ho modelu}}{14}{figure.4.1}}
\newlabel{fig:logicModel}{{4.1}{14}{Diagram logického dátového modelu}{figure.4.1}{}}
\citation{Vicknair2010}
\abx@aux@cite{Vicknair2010}
\abx@aux@segm{0}{0}{Vicknair2010}
\@writefile{lof}{\defcounter {refsection}{0}\relax }\@writefile{lof}{\contentsline {figure}{\numberline {4.2}{\ignorespaces Ilustr\IeC {\'a}cia vnoren\IeC {\'e}ho modelu mno\IeC {\v z}\IeC {\'\i }n}}{17}{figure.4.2}}
\newlabel{fig:logicModel}{{4.2}{17}{Ilustrácia vnoreného modelu množín}{figure.4.2}{}}
\@writefile{toc}{\defcounter {refsection}{0}\relax }\@writefile{toc}{\contentsline {subsection}{\numberline {4.2.2}Mo\IeC {\v z}nosti zobrazovania v\IeC {\'y}davkov}{17}{subsection.4.2.2}}
\@writefile{toc}{\defcounter {refsection}{0}\relax }\@writefile{toc}{\contentsline {section}{\numberline {4.3}Pou\IeC {\v z}\IeC {\'\i }vate\IeC {\v l}sk\IeC {\'y} prieskum}{18}{section.4.3}}
\@writefile{toc}{\defcounter {refsection}{0}\relax }\@writefile{toc}{\contentsline {subsection}{\numberline {4.3.1}Vyhodnotenie prieskumu}{20}{subsection.4.3.1}}
\@writefile{toc}{\defcounter {refsection}{0}\relax }\@writefile{toc}{\contentsline {section}{\numberline {4.4}Implement\IeC {\'a}cia aplik\IeC {\'a}cie na sledovanie v\IeC {\'y}davkov}{20}{section.4.4}}
\@writefile{toc}{\defcounter {refsection}{0}\relax }\@writefile{toc}{\contentsline {subsection}{\numberline {4.4.1}Backend}{20}{subsection.4.4.1}}
\@writefile{toc}{\defcounter {refsection}{0}\relax }\@writefile{toc}{\contentsline {subsection}{\numberline {4.4.2}Frontend}{22}{subsection.4.4.2}}
\@writefile{lof}{\defcounter {refsection}{0}\relax }\@writefile{lof}{\contentsline {figure}{\numberline {4.3}{\ignorespaces Tabu\IeC {\v l}ka kateg\IeC {\'o}ri\IeC {\'\i }}}{23}{figure.4.3}}
\newlabel{fig:categories-table}{{4.3}{23}{Tabuľka kategórií}{figure.4.3}{}}
\@writefile{lof}{\defcounter {refsection}{0}\relax }\@writefile{lof}{\contentsline {figure}{\numberline {4.4}{\ignorespaces Detail kateg\IeC {\'o}rie}}{24}{figure.4.4}}
\newlabel{fig:categories-table}{{4.4}{24}{Detail kategórie}{figure.4.4}{}}
\@writefile{lof}{\defcounter {refsection}{0}\relax }\@writefile{lof}{\contentsline {figure}{\numberline {4.5}{\ignorespaces Tabu\IeC {\v l}ka so zoznamom blo\IeC {\v c}kov}}{24}{figure.4.5}}
\newlabel{fig:categories-table}{{4.5}{24}{Tabuľka so zoznamom bločkov}{figure.4.5}{}}
\@writefile{toc}{\defcounter {refsection}{0}\relax }\@writefile{toc}{\contentsline {section}{\numberline {4.5}Testovanie s pou\IeC {\v z}\IeC {\'\i }vate\IeC {\v l}mi}{24}{section.4.5}}
\@writefile{toc}{\defcounter {refsection}{0}\relax }\@writefile{toc}{\contentsline {chapter}{\numberline {5}Infra\IeC {\v s}trukt\IeC {\'u}ra platformy KillBills}{27}{chapter.5}}
\@writefile{lof}{\defcounter {refsection}{0}\relax }\@writefile{lof}{\addvspace {10\p@ }}
\@writefile{lot}{\defcounter {refsection}{0}\relax }\@writefile{lot}{\addvspace {10\p@ }}
\@writefile{toc}{\defcounter {refsection}{0}\relax }\@writefile{toc}{\contentsline {section}{\numberline {5.1}V\IeC {\'y}ber pou\IeC {\v z}it\IeC {\'y}ch technol\IeC {\'o}gi\IeC {\'\i }}{27}{section.5.1}}
\citation{MF:blocek}
\abx@aux@cite{MF:blocek}
\abx@aux@segm{0}{0}{MF:blocek}
\@writefile{lof}{\defcounter {refsection}{0}\relax }\@writefile{lof}{\contentsline {figure}{\numberline {5.1}{\ignorespaces Porovnanie r\IeC {\'a}mcov Sinatra a Kemal}}{28}{figure.5.1}}
\newlabel{fig:KemalSinatraBenchmark}{{5.1}{28}{Porovnanie rámcov Sinatra a Kemal}{figure.5.1}{}}
\citation{Azure:aboutDB}
\abx@aux@cite{Azure:aboutDB}
\abx@aux@segm{0}{0}{Azure:aboutDB}
\@writefile{toc}{\defcounter {refsection}{0}\relax }\@writefile{toc}{\contentsline {section}{\numberline {5.2}Moduly platformy KillBills}{29}{section.5.2}}
\@writefile{toc}{\defcounter {refsection}{0}\relax }\@writefile{toc}{\contentsline {section}{\numberline {5.3}Vytvorenie clustera z viacer\IeC {\'y}ch serverov}{30}{section.5.3}}
\@writefile{toc}{\defcounter {refsection}{0}\relax }\@writefile{toc}{\contentsline {subsection}{\numberline {5.3.1}Kontajneriz\IeC {\'a}cia modulov}{31}{subsection.5.3.1}}
\@writefile{toc}{\defcounter {refsection}{0}\relax }\@writefile{toc}{\contentsline {subsection}{\numberline {5.3.2}Spr\IeC {\'a}va kontajnerov v r\IeC {\'a}mci clustera}{31}{subsection.5.3.2}}
\citation{openshift:nfs}
\abx@aux@cite{openshift:nfs}
\abx@aux@segm{0}{0}{openshift:nfs}
\@writefile{toc}{\defcounter {refsection}{0}\relax }\@writefile{toc}{\contentsline {subsection}{\numberline {5.3.3}Zdie\IeC {\v l}an\IeC {\'e} \IeC {\'u}lo\IeC {\v z}isko medzi komponentami v clustri}{32}{subsection.5.3.3}}
\@writefile{toc}{\defcounter {refsection}{0}\relax }\@writefile{toc}{\contentsline {section}{\numberline {5.4}Komunik\IeC {\'a}cia medzi modulmi}{32}{section.5.4}}
\citation{Loreto2011}
\abx@aux@cite{Loreto2011}
\abx@aux@segm{0}{0}{Loreto2011}
\citation{Loreto2011}
\abx@aux@segm{0}{0}{Loreto2011}
\citation{websocket}
\abx@aux@cite{websocket}
\abx@aux@segm{0}{0}{websocket}
\@writefile{lof}{\defcounter {refsection}{0}\relax }\@writefile{lof}{\contentsline {figure}{\numberline {5.2}{\ignorespaces Diagram komponentov platformy KillBills}}{33}{figure.5.2}}
\newlabel{fig:components}{{5.2}{33}{Diagram komponentov platformy KillBills}{figure.5.2}{}}
\@writefile{toc}{\defcounter {refsection}{0}\relax }\@writefile{toc}{\contentsline {subsection}{\numberline {5.4.1}Odosielanie asynchr\IeC {\'o}nnej odpovede}{33}{subsection.5.4.1}}
\@writefile{toc}{\defcounter {refsection}{0}\relax }\@writefile{toc}{\contentsline {subsection}{\numberline {5.4.2}Postupnos\IeC {\v t} volan\IeC {\'\i } pri sprac\IeC {\'u}van\IeC {\'\i } sn\IeC {\'\i }mky blo\IeC {\v c}ka}{34}{subsection.5.4.2}}
\@writefile{lof}{\defcounter {refsection}{0}\relax }\@writefile{lof}{\contentsline {figure}{\numberline {5.3}{\ignorespaces Sekven\IeC {\v c}n\IeC {\'y} diagram platformy KillBills}}{35}{figure.5.3}}
\newlabel{fig:sequence}{{5.3}{35}{Sekvenčný diagram platformy KillBills}{figure.5.3}{}}
\@writefile{toc}{\defcounter {refsection}{0}\relax }\@writefile{toc}{\contentsline {chapter}{\numberline {6}Z\IeC {\'a}ver}{37}{chapter.6}}
\@writefile{lof}{\defcounter {refsection}{0}\relax }\@writefile{lof}{\addvspace {10\p@ }}
\@writefile{lot}{\defcounter {refsection}{0}\relax }\@writefile{lot}{\addvspace {10\p@ }}
\@writefile{toc}{\defcounter {refsection}{0}\relax }\@writefile{toc}{\contentsline {paragraph}{Aplik\IeC {\'a}cia na sledovanie v\IeC {\'y}davkov}{37}{section*.33}}
\@writefile{toc}{\defcounter {refsection}{0}\relax }\@writefile{toc}{\contentsline {paragraph}{Platforma KillBills}{37}{section*.34}}
\@writefile{toc}{\defcounter {refsection}{0}\relax }\@writefile{toc}{\contentsline {chapter}{Bibliografia}{38}{section*.34}}
\@writefile{toc}{\defcounter {refsection}{0}\relax }\@writefile{toc}{\contentsline {chapter}{\numberline {A}Technick\IeC {\'a} dokument\IeC {\'a}cia}{41}{appendix.A}}
\@writefile{lof}{\defcounter {refsection}{0}\relax }\@writefile{lof}{\addvspace {10\p@ }}
\@writefile{lot}{\defcounter {refsection}{0}\relax }\@writefile{lot}{\addvspace {10\p@ }}
\@writefile{toc}{\defcounter {refsection}{0}\relax }\@writefile{toc}{\contentsline {section}{\numberline {A.1}Aplik\IeC {\'a}cia na sledovanie v\IeC {\'y}davkov}{41}{section.A.1}}
\@writefile{toc}{\defcounter {refsection}{0}\relax }\@writefile{toc}{\contentsline {section}{\numberline {A.2}Modul websocket-service}{44}{section.A.2}}
\@writefile{toc}{\defcounter {refsection}{0}\relax }\@writefile{toc}{\contentsline {section}{\numberline {A.3}Modul work-dispatcher}{44}{section.A.3}}
\@writefile{toc}{\defcounter {refsection}{0}\relax }\@writefile{toc}{\contentsline {chapter}{\numberline {B}Experiment\IeC {\'a}lny prototyp d\IeC {\'a}tovodu}{45}{appendix.B}}
\@writefile{lof}{\defcounter {refsection}{0}\relax }\@writefile{lof}{\addvspace {10\p@ }}
\@writefile{lot}{\defcounter {refsection}{0}\relax }\@writefile{lot}{\addvspace {10\p@ }}
\@writefile{toc}{\defcounter {refsection}{0}\relax }\@writefile{toc}{\contentsline {section}{\numberline {B.1}Kon\IeC {\v s}trukcia prototypu}{45}{section.B.1}}
\@writefile{lof}{\defcounter {refsection}{0}\relax }\@writefile{lof}{\contentsline {figure}{\numberline {B.1}{\ignorespaces Sch\IeC {\'e}ma experiment\IeC {\'a}lneho d\IeC {\'a}tovodu}}{45}{figure.B.1}}
\newlabel{fig:pipeline}{{B.1}{45}{Schéma experimentálneho dátovodu}{figure.B.1}{}}
\@writefile{lof}{\defcounter {refsection}{0}\relax }\@writefile{lof}{\contentsline {figure}{\numberline {B.2}{\ignorespaces Sn\IeC {\'\i }mka z pou\IeC {\v z}\IeC {\'\i }vate\IeC {\v l}sk\IeC {\'e}ho rozhrania prototypu}}{46}{figure.B.2}}
\newlabel{fig:prototyp}{{B.2}{46}{Snímka z používateľského rozhrania prototypu}{figure.B.2}{}}
\@writefile{toc}{\defcounter {refsection}{0}\relax }\@writefile{toc}{\contentsline {section}{\numberline {B.2}V\IeC {\'y}sledky experiment\IeC {\'a}lneho prototypu}{46}{section.B.2}}
\@writefile{lot}{\defcounter {refsection}{0}\relax }\@writefile{lot}{\contentsline {table}{\numberline {B.1}{\ignorespaces Tabu\IeC {\v l}ka v\IeC {\'y}sledkov merania protypu}}{47}{table.B.1}}
\newlabel{fig:prototype_results}{{B.1}{47}{Tabuľka výsledkov merania protypu}{table.B.1}{}}
\@writefile{toc}{\defcounter {refsection}{0}\relax }\@writefile{toc}{\contentsline {chapter}{\numberline {C}\IeC {\v C}l\IeC {\'a}nok na IIT.SRC}{49}{appendix.C}}
\@writefile{lof}{\defcounter {refsection}{0}\relax }\@writefile{lof}{\addvspace {10\p@ }}
\@writefile{lot}{\defcounter {refsection}{0}\relax }\@writefile{lot}{\addvspace {10\p@ }}
\@writefile{toc}{\defcounter {refsection}{0}\relax }\@writefile{toc}{\contentsline {chapter}{\numberline {D}ImagineCup Online kolo: N\IeC {\'a}vrh projektu}{55}{appendix.D}}
\@writefile{lof}{\defcounter {refsection}{0}\relax }\@writefile{lof}{\addvspace {10\p@ }}
\@writefile{lot}{\defcounter {refsection}{0}\relax }\@writefile{lot}{\addvspace {10\p@ }}
\@writefile{toc}{\defcounter {refsection}{0}\relax }\@writefile{toc}{\contentsline {chapter}{\numberline {E}ImagineCup Online Fin\IeC {\'a}le: Pou\IeC {\v z}\IeC {\'\i }vate\IeC {\v l}sk\IeC {\'y} manu\IeC {\'a}l}{65}{appendix.E}}
\@writefile{lof}{\defcounter {refsection}{0}\relax }\@writefile{lof}{\addvspace {10\p@ }}
\@writefile{lot}{\defcounter {refsection}{0}\relax }\@writefile{lot}{\addvspace {10\p@ }}
\@writefile{toc}{\defcounter {refsection}{0}\relax }\@writefile{toc}{\contentsline {chapter}{\numberline {F}Pl\IeC {\'a}n pr\IeC {\'a}ce a jeho naplnenie}{71}{appendix.F}}
\@writefile{lof}{\defcounter {refsection}{0}\relax }\@writefile{lof}{\addvspace {10\p@ }}
\@writefile{lot}{\defcounter {refsection}{0}\relax }\@writefile{lot}{\addvspace {10\p@ }}
\@writefile{toc}{\defcounter {refsection}{0}\relax }\@writefile{toc}{\contentsline {chapter}{\numberline {G}N\IeC {\'a}vod na spustenie}{73}{appendix.G}}
\@writefile{lof}{\defcounter {refsection}{0}\relax }\@writefile{lof}{\addvspace {10\p@ }}
\@writefile{lot}{\defcounter {refsection}{0}\relax }\@writefile{lot}{\addvspace {10\p@ }}
\abx@aux@refcontextdefaultsdone
\abx@aux@defaultrefcontext{0}{Bawa:Shopping}{nty/global/}
\abx@aux@defaultrefcontext{0}{pipelines}{nty/global/}
\abx@aux@defaultrefcontext{0}{openshift:nfs}{nty/global/}
\abx@aux@defaultrefcontext{0}{teraz}{nty/global/}
\abx@aux@defaultrefcontext{0}{websocket}{nty/global/}
\abx@aux@defaultrefcontext{0}{Klozar:ORL}{nty/global/}
\abx@aux@defaultrefcontext{0}{Azure:aboutDB}{nty/global/}
\abx@aux@defaultrefcontext{0}{Loreto2011}{nty/global/}
\abx@aux@defaultrefcontext{0}{Vicknair2010}{nty/global/}
\abx@aux@defaultrefcontext{0}{MF:blocek}{nty/global/}
\gdef\minted@oldcachelist{,
  default-pyg-prefix.pygstyle,
  default.pygstyle,
  0E9C027B71FAB9777DB0063A64D9BC1159903D0DCC0BD27D24705E832EFCA227.pygtex,
  368412CC6838DD8018F05D21BF3F3F295093E84BEA004B2911D4DA186861F6DB.pygtex,
  3C39157712F6AAE95FA1A973F90872FB5093E84BEA004B2911D4DA186861F6DB.pygtex,
  F8F59DB74F0A0CD3B29FC777393C2EC55093E84BEA004B2911D4DA186861F6DB.pygtex,
  4503ED2E2FABE15F9A27A1D8558E58255093E84BEA004B2911D4DA186861F6DB.pygtex,
  202A5CC46D8283ACB7118FE772D5FDC65093E84BEA004B2911D4DA186861F6DB.pygtex,
  779BE995D2D708B38149794022EA80265093E84BEA004B2911D4DA186861F6DB.pygtex}
\@writefile{toc}{\defcounter {refsection}{0}\relax }\@writefile{toc}{\contentsline {chapter}{\numberline {H}Elektronick\IeC {\'e} m\IeC {\'e}dium}{75}{appendix.H}}
\@writefile{lof}{\defcounter {refsection}{0}\relax }\@writefile{lof}{\addvspace {10\p@ }}
\@writefile{lot}{\defcounter {refsection}{0}\relax }\@writefile{lot}{\addvspace {10\p@ }}
